Assignment Journal
…
U1: Unemployment rate of urban males per 1000 of age 14-24

U2: Unemployment rate of urban males per 1000 of age 35-39

W: Median value of transferable goods and assets or family income in tens of $

X: The number of families per 1000 earning below 1/2 the median income

We are interested in checking whether the reported crime rate (# of offenses reported to police per million population) and the average education (mean number of years of schooling for persons of age 25 or older) are related.

1. How many observations are there in the dataset? To what does each observation correspond?

dat.crime

## # A tibble: 47 × 14
##        R   Age     S    Ed   Ex0   Ex1    LF     M     N    NW    U1    U2     W
##    <dbl> <dbl> <dbl> <dbl> <dbl> <dbl> <dbl> <dbl> <dbl> <dbl> <dbl> <dbl> <dbl>
##  1  79.1   151     1    91    58    56   510   950    33   301   108    41   394
##  2 164.    143     0   113   103    95   583  1012    13   102    96    36   557
##  3  57.8   142     1    89    45    44   533   969    18   219    94    33   318
##  4 197.    136     0   121   149   141   577   994   157    80   102    39   673
##  5 123.    141     0   121   109   101   591   985    18    30    91    20   578
##  6  68.2   121     0   110   118   115   547   964    25    44    84    29   689
##  7  96.3   127     1   111    82    79   519   982     4   139    97    38   620
##  8 156.    131     1   109   115   109   542   969    50   179    79    35   472
##  9  85.6   157     1    90    65    62   553   955    39   286    81    28   421
## 10  70.5   140     0   118    71    68   632  1029     7    15   100    24   526
## # … with 37 more rows, and 1 more variable: X <dbl>
…
install.packages("tidyverse", repos = "http://cran.us.r-project.org") 

## 
## The downloaded binary packages are in
##  /var/folders/5v/1jv37ldd33xbd56gvpm1fdth0000gn/T//RtmpWjpnbn/downloaded_packages

#Installing the package 'tidyverse'

library(tidyverse)
#Scanning the library for the package 'tidyverse'

mpg

## # A tibble: 234 × 11
##    manufacturer model      displ  year   cyl trans drv     cty   hwy fl    class
##    <chr>        <chr>      <dbl> <int> <int> <chr> <chr> <int> <int> <chr> <chr>
##  1 audi         a4           1.8  1999     4 auto… f        18    29 p     comp…
##  2 audi         a4           1.8  1999     4 manu… f        21    29 p     comp…
##  3 audi         a4           2    2008     4 manu… f        20    31 p     comp…
##  4 audi         a4           2    2008     4 auto… f        21    30 p     comp…
##  5 audi         a4           2.8  1999     6 auto… f        16    26 p     comp…
##  6 audi         a4           2.8  1999     6 manu… f        18    26 p     comp…
##  7 audi         a4           3.1  2008     6 auto… f        18    27 p     comp…
##  8 audi         a4 quattro   1.8  1999     4 manu… 4        18    26 p     comp…
##  9 audi         a4 quattro   1.8  1999     4 auto… 4        16    25 p     comp…
## 10 audi         a4 quattro   2    2008     4 manu… 4        20    28 p     comp…
## # … with 224 more rows
…
